#version 130

out vec4 fragment;
in vec3 color;
in vec4 position;

void main(void)
{	
/*	vec4 testPosition = position + vec4(1.0, 1.0, 1.0, 1.0);
	testPosition = testPosition/2;
	fragment = testPosition;*/
	fragment = position;

	//fragment = vec4(0.5,0.5,0.0, 1.0);
	//gl_FragColor = vec4(color.xyz, 1.0);
	//gl_FragColor = vec4(1.0, 0.0, 0.0, 1.0);
	//gl_FragColor = vec4(gl_Position.x, gl_Position.y, gl_Position.z, 1.0);
}